%YAML 1.1
%TAG !u! tag:unity3d.com,2011:
--- !u!1001 &7137928734698203520
PrefabInstance:
  m_ObjectHideFlags: 0
  serializedVersion: 2
  m_Modification:
    m_TransformParent: {fileID: 0}
    m_Modifications:
    - target: {fileID: 7250704780608536069, guid: c58a42dafd1cfaa43850afeee4014e4c, type: 3}
      propertyPath: m_Name
      value: HUDManager
      objectReference: {fileID: 0}
    - target: {fileID: 7250704780608536073, guid: c58a42dafd1cfaa43850afeee4014e4c, type: 3}
      propertyPath: m_LocalPosition.x
      value: 0
      objectReference: {fileID: 0}
    - target: {fileID: 7250704780608536073, guid: c58a42dafd1cfaa43850afeee4014e4c, type: 3}
      propertyPath: m_LocalPosition.y
      value: 0
      objectReference: {fileID: 0}
    - target: {fileID: 7250704780608536073, guid: c58a42dafd1cfaa43850afeee4014e4c, type: 3}
      propertyPath: m_LocalPosition.z
      value: 0
      objectReference: {fileID: 0}
    - target: {fileID: 7250704780608536073, guid: c58a42dafd1cfaa43850afeee4014e4c, type: 3}
      propertyPath: m_LocalRotation.x
      value: 0
      objectReference: {fileID: 0}
    - target: {fileID: 7250704780608536073, guid: c58a42dafd1cfaa43850afeee4014e4c, type: 3}
      propertyPath: m_LocalRotation.y
      value: 0
      objectReference: {fileID: 0}
    - target: {fileID: 7250704780608536073, guid: c58a42dafd1cfaa43850afeee4014e4c, type: 3}
      propertyPath: m_LocalRotation.z
      value: 0
      objectReference: {fileID: 0}
    - target: {fileID: 7250704780608536073, guid: c58a42dafd1cfaa43850afeee4014e4c, type: 3}
      propertyPath: m_LocalRotation.w
      value: 1
      objectReference: {fileID: 0}
    - target: {fileID: 7250704780608536073, guid: c58a42dafd1cfaa43850afeee4014e4c, type: 3}
      propertyPath: m_RootOrder
      value: 0
      objectReference: {fileID: 0}
    - target: {fileID: 7250704780608536073, guid: c58a42dafd1cfaa43850afeee4014e4c, type: 3}
      propertyPath: m_LocalEulerAnglesHint.x
      value: 0
      objectReference: {fileID: 0}
    - target: {fileID: 7250704780608536073, guid: c58a42dafd1cfaa43850afeee4014e4c, type: 3}
      propertyPath: m_LocalEulerAnglesHint.y
      value: 0
      objectReference: {fileID: 0}
    - target: {fileID: 7250704780608536073, guid: c58a42dafd1cfaa43850afeee4014e4c, type: 3}
      propertyPath: m_LocalEulerAnglesHint.z
      value: 0
      objectReference: {fileID: 0}
    - target: {fileID: 7250704780608536073, guid: c58a42dafd1cfaa43850afeee4014e4c, type: 3}
      propertyPath: m_AnchoredPosition.x
      value: 0
      objectReference: {fileID: 0}
    - target: {fileID: 7250704780608536073, guid: c58a42dafd1cfaa43850afeee4014e4c, type: 3}
      propertyPath: m_AnchoredPosition.y
      value: 0
      objectReference: {fileID: 0}
    - target: {fileID: 7250704780608536073, guid: c58a42dafd1cfaa43850afeee4014e4c, type: 3}
      propertyPath: m_SizeDelta.x
      value: 0
      objectReference: {fileID: 0}
    - target: {fileID: 7250704780608536073, guid: c58a42dafd1cfaa43850afeee4014e4c, type: 3}
      propertyPath: m_SizeDelta.y
      value: 0
      objectReference: {fileID: 0}
    - target: {fileID: 7250704780608536073, guid: c58a42dafd1cfaa43850afeee4014e4c, type: 3}
      propertyPath: m_AnchorMin.x
      value: 0
      objectReference: {fileID: 0}
    - target: {fileID: 7250704780608536073, guid: c58a42dafd1cfaa43850afeee4014e4c, type: 3}
      propertyPath: m_AnchorMin.y
      value: 0
      objectReference: {fileID: 0}
    - target: {fileID: 7250704780608536073, guid: c58a42dafd1cfaa43850afeee4014e4c, type: 3}
      propertyPath: m_AnchorMax.x
      value: 0
      objectReference: {fileID: 0}
    - target: {fileID: 7250704780608536073, guid: c58a42dafd1cfaa43850afeee4014e4c, type: 3}
      propertyPath: m_AnchorMax.y
      value: 0
      objectReference: {fileID: 0}
    - target: {fileID: 7250704780608536073, guid: c58a42dafd1cfaa43850afeee4014e4c, type: 3}
      propertyPath: m_Pivot.x
      value: 0
      objectReference: {fileID: 0}
    - target: {fileID: 7250704780608536073, guid: c58a42dafd1cfaa43850afeee4014e4c, type: 3}
      propertyPath: m_Pivot.y
      value: 0
      objectReference: {fileID: 0}
    m_RemovedComponents: []
  m_SourcePrefab: {fileID: 100100000, guid: c58a42dafd1cfaa43850afeee4014e4c, type: 3}
